…
    ## v ggplot2 3.3.3     v purrr   0.3.4
    ## v tibble  3.0.4     v dplyr   1.0.2
    ## v tidyr   1.1.2     v stringr 1.4.0
    ## v readr   1.4.0     v forcats 0.5.0

    ## -- Conflicts ------------------------------------------ tidyverse_conflicts() --
    ## x dplyr::filter() masks stats::filter()
    ## x dplyr::lag()    masks stats::lag()

``` r
iris <- as_tibble(iris)
iris
```

    ## # A tibble: 150 x 5
    ##    Sepal.Length Sepal.Width Petal.Length Petal.Width Species
    ##           <dbl>       <dbl>        <dbl>       <dbl> <fct>  
    ##  1          5.1         3.5          1.4         0.2 setosa 
    ##  2          4.9         3            1.4         0.2 setosa 
    ##  3          4.7         3.2          1.3         0.2 setosa 
    ##  4          4.6         3.1          1.5         0.2 setosa 
    ##  5          5           3.6          1.4         0.2 setosa 
    ##  6          5.4         3.9          1.7         0.4 setosa 
    ##  7          4.6         3.4          1.4         0.3 setosa 
    ##  8          5           3.4          1.5         0.2 setosa 
    ##  9          4.4         2.9          1.4         0.2 setosa 
    ## 10          4.9         3.1          1.5         0.1 setosa 
    ## # ... with 140 more rows

Question \#1

``` r
flower <- rename(iris, sepal_length = Sepal.Length, 
               sepal_width = Sepal.Width, 
               petal_length = Petal.Length, 
               petal_width = Petal.Width, 
               species = Species)
flower
```

    ## # A tibble: 150 x 5
    ##    sepal_length sepal_width petal_length petal_width species
    ##           <dbl>       <dbl>        <dbl>       <dbl> <fct>  
    ##  1          5.1         3.5          1.4         0.2 setosa 
    ##  2          4.9         3            1.4         0.2 setosa 
    ##  3          4.7         3.2          1.3         0.2 setosa 
    ##  4          4.6         3.1          1.5         0.2 setosa 
    ##  5          5           3.6          1.4         0.2 setosa 
    ##  6          5.4         3.9          1.7         0.4 setosa 
    ##  7          4.6         3.4          1.4         0.3 setosa 
    ##  8          5           3.4          1.5         0.2 setosa 
    ##  9          4.4         2.9          1.4         0.2 setosa 
    ## 10          4.9         3.1          1.5         0.1 setosa 
    ## # ... with 140 more rows


    Question #2

    ```r
    mm <- mutate(flower, sepalcm_length = sepal_length * 10, 
           sepalcm_width = sepal_width * 10, 
           petalcm_length = petal_length * 10, 
           petalcm_width = petal_width * 10)
           
    mm

    ## # A tibble: 150 x 9
    ##    sepal_length sepal_width petal_length petal_width species sepalcm_length
    ##           <dbl>       <dbl>        <dbl>       <dbl> <fct>            <dbl>
    ##  1          5.1         3.5          1.4         0.2 setosa              51
    ##  2          4.9         3            1.4         0.2 setosa              49
    ##  3          4.7         3.2          1.3         0.2 setosa              47
    ##  4          4.6         3.1          1.5         0.2 setosa              46
    ##  5          5           3.6          1.4         0.2 setosa              50
    ##  6          5.4         3.9          1.7         0.4 setosa              54
    ##  7          4.6         3.4          1.4         0.3 setosa              46
    ##  8          5           3.4          1.5         0.2 setosa              50
    ##  9          4.4         2.9          1.4         0.2 setosa              44
    ## 10          4.9         3.1          1.5         0.1 setosa              49
    ## # ... with 140 more rows, and 3 more variables: sepalcm_width <dbl>,
    ## #   petalcm_length <dbl>, petalcm_width <dbl>

Question \#3

``` r
area <- mutate(flower, sepal_area = sepal_length * sepal_width,
       petal_area = petal_length * petal_width)
area
```

    ## # A tibble: 150 x 7
    ##    sepal_length sepal_width petal_length petal_width species sepal_area
    ##           <dbl>       <dbl>        <dbl>       <dbl> <fct>        <dbl>
    ##  1          5.1         3.5          1.4         0.2 setosa        17.8
    ##  2          4.9         3            1.4         0.2 setosa        14.7
    ##  3          4.7         3.2          1.3         0.2 setosa        15.0
    ##  4          4.6         3.1          1.5         0.2 setosa        14.3
    ##  5          5           3.6          1.4         0.2 setosa        18  
    ##  6          5.4         3.9          1.7         0.4 setosa        21.1
    ##  7          4.6         3.4          1.4         0.3 setosa        15.6
    ##  8          5           3.4          1.5         0.2 setosa        17  
    ##  9          4.4         2.9          1.4         0.2 setosa        12.8
    ## 10          4.9         3.1          1.5         0.1 setosa        15.2
    ## # ... with 140 more rows, and 1 more variable: petal_area <dbl>

``` r
flowerArea <- select(area, sepal_area, petal_area, species)
flowerArea
```

    ## # A tibble: 150 x 3
    ##    sepal_area petal_area species
    ##         <dbl>      <dbl> <fct>  
    ##  1       17.8      0.280 setosa 
    ##  2       14.7      0.280 setosa 
    ##  3       15.0      0.26  setosa 
    ##  4       14.3      0.3   setosa 
    ##  5       18        0.280 setosa 
    ##  6       21.1      0.68  setosa 
    ##  7       15.6      0.42  setosa 
    ##  8       17        0.3   setosa 
    ##  9       12.8      0.280 setosa 
    ## 10       15.2      0.15  setosa 
    ## # ... with 140 more rows
…
